 ERROR  - 2015-07-12 08:05:21,006  CM Error Code = 2
Traceback (most recent call last):
  File "index.py", line 15, in <module>
    from query import *
  File "/home/edlira/pcs4kids_final/query.py", line 44, in <module>
    class db4kids(object):
  File "/home/edlira/pcs4kids_final/query.py", line 48, in db4kids
    dbpass_decrypt = obj.decrypt(binascii.a2b_uu(dbpass));
Error: Illegal char
